lab04-balaji-veeramani.Rmd
…
gsw_mpg = dat %>% filter(team == "GSW") %>% mutate(min_per_game = minutes / games) %>% select(player, experience, min_per_game) %>% arrange(min_per_game) 

dat %>% summarise(max(height))

##   max(height)
## 1          87

dat %>% summarise(sd(points3))

##   sd(points3)
## 1    55.11807

dat %>% group_by(team) %>% summarise(median(points3))

## # A tibble: 30 x 2
##    team  `median(points3)`
##    <chr>             <dbl>
##  1 ATL                32  
##  2 BOS                46  
##  3 BRK                36  
##  4 CHI                28.5
##  5 CHO                13  
##  6 CLE                26.5
##  7 DAL                18  
##  8 DEN                46  
##  9 DET                28  
## 10 GSW                10.5
## # ... with 20 more rows
…
